[{"Dia":"04/01/2016","tCompra":"7,31%","tVenda":"7,39%","pCompra":"4.743,76","pVenda":"4.713,76"},
{"Dia":"05/01/2016","tCompra":"7,29%","tVenda":"7,37%","pCompra":"4.753,49","pVenda":"4.723,41"},
{"Dia":"06/01/2016","tCompra":"7,20%","tVenda":"7,28%","pCompra":"4.789,84","pVenda":"4.759,45"},
{"Dia":"07/01/2016","tCompra":"7,17%","tVenda":"7,25%","pCompra":"4.803,50","pVenda":"4.773,00"},
{"Dia":"08/01/2016","tCompra":"7,24%","tVenda":"7,32%","pCompra":"4.780,70","pVenda":"4.750,44"},
{"Dia":"11/01/2016","tCompra":"7,28%","tVenda":"7,36%","pCompra":"4.767,73","pVenda":"4.737,61"},
{"Dia":"12/01/2016","tCompra":"7,27%","tVenda":"7,35%","pCompra":"4.775,17","pVenda":"4.745,01"},
{"Dia":"13/01/2016","tCompra":"7,26%","tVenda":"7,34%","pCompra":"4.781,27","pVenda":"4.751,07"},
{"Dia":"14/01/2016","tCompra":"7,29%","tVenda":"7,37%","pCompra":"4.772,23","pVenda":"4.742,14"},
{"Dia":"15/01/2016","tCompra":"7,28%","tVenda":"7,36%","pCompra":"4.780,29","pVenda":"4.750,15"},
{"Dia":"18/01/2016","tCompra":"7,31%","tVenda":"7,39%","pCompra":"4.771,27","pVenda":"4.741,24"},
{"Dia":"19/01/2016","tCompra":"7,29%","tVenda":"7,37%","pCompra":"4.781,14","pVenda":"4.751,04"},
{"Dia":"20/01/2016","tCompra":"7,33%","tVenda":"7,41%","pCompra":"4.777,24","pVenda":"4.747,21"},
{"Dia":"21/01/2016","tCompra":"7,42%","tVenda":"7,50%","pCompra":"4.746,25","pVenda":"4.716,54"},
{"Dia":"22/01/2016","tCompra":"7,41%","tVenda":"7,49%","pCompra":"4.758,35","pVenda":"4.728,59"},
{"Dia":"25/01/2016","tCompra":"7,41%","tVenda":"7,49%","pCompra":"4.758,35","pVenda":"4.728,59"},
{"Dia":"26/01/2016","tCompra":"7,41%","tVenda":"7,49%","pCompra":"4.761,13","pVenda":"4.731,35"},
{"Dia":"27/01/2016","tCompra":"7,36%","tVenda":"7,44%","pCompra":"4.782,65","pVenda":"4.752,70"},
{"Dia":"28/01/2016","tCompra":"7,30%","tVenda":"7,38%","pCompra":"4.817,11","pVenda":"4.786,89"},
{"Dia":"29/01/2016","tCompra":"7,21%","tVenda":"7,29%","pCompra":"4.857,98","pVenda":"4.827,41"},
{"Dia":"01/02/2016","tCompra":"7,22%","tVenda":"7,30%","pCompra":"4.856,74","pVenda":"4.826,20"},
{"Dia":"02/02/2016","tCompra":"7,13%","tVenda":"7,21%","pCompra":"4.894,03","pVenda":"4.863,17"},
{"Dia":"03/02/2016","tCompra":"7,27%","tVenda":"7,35%","pCompra":"4.842,81","pVenda":"4.812,44"},
{"Dia":"04/02/2016","tCompra":"7,24%","tVenda":"7,32%","pCompra":"4.856,87","pVenda":"4.826,39"},
{"Dia":"05/02/2016","tCompra":"7,28%","tVenda":"7,36%","pCompra":"4.849,19","pVenda":"4.818,82"},
{"Dia":"10/02/2016","tCompra":"7,25%","tVenda":"7,33%","pCompra":"4.863,25","pVenda":"4.832,78"},
{"Dia":"11/02/2016","tCompra":"7,18%","tVenda":"7,26%","pCompra":"4.892,75","pVenda":"4.862,03"},
{"Dia":"12/02/2016","tCompra":"7,20%","tVenda":"7,28%","pCompra":"4.890,17","pVenda":"4.859,50"},
{"Dia":"15/02/2016","tCompra":"7,14%","tVenda":"7,22%","pCompra":"4.924,30","pVenda":"4.893,36"},
{"Dia":"16/02/2016","tCompra":"7,08%","tVenda":"7,16%","pCompra":"4.950,87","pVenda":"4.919,71"},
{"Dia":"17/02/2016","tCompra":"7,10%","tVenda":"7,18%","pCompra":"4.946,23","pVenda":"4.915,13"},
{"Dia":"18/02/2016","tCompra":"7,09%","tVenda":"7,17%","pCompra":"4.953,32","pVenda":"4.922,18"},
{"Dia":"19/02/2016","tCompra":"7,18%","tVenda":"7,26%","pCompra":"4.925,13","pVenda":"4.894,29"},
{"Dia":"22/02/2016","tCompra":"7,16%","tVenda":"7,24%","pCompra":"4.940,14","pVenda":"4.909,20"},
{"Dia":"23/02/2016","tCompra":"7,08%","tVenda":"7,16%","pCompra":"4.974,76","pVenda":"4.943,51"},
{"Dia":"24/02/2016","tCompra":"7,09%","tVenda":"7,17%","pCompra":"4.974,21","pVenda":"4.943,00"},
{"Dia":"25/02/2016","tCompra":"7,06%","tVenda":"7,14%","pCompra":"4.989,38","pVenda":"4.958,05"},
{"Dia":"26/02/2016","tCompra":"7,08%","tVenda":"7,16%","pCompra":"4.993,73","pVenda":"4.962,42"},
{"Dia":"29/02/2016","tCompra":"7,09%","tVenda":"7,17%","pCompra":"4.993,40","pVenda":"4.962,11"},
{"Dia":"01/03/2016","tCompra":"7,07%","tVenda":"7,15%","pCompra":"5.003,55","pVenda":"4.972,19"},
{"Dia":"02/03/2016","tCompra":"7,03%","tVenda":"7,11%","pCompra":"5.021,64","pVenda":"4.990,13"},
{"Dia":"03/03/2016","tCompra":"6,99%","tVenda":"7,07%","pCompra":"5.039,79","pVenda":"5.008,14"},
{"Dia":"04/03/2016","tCompra":"6,44%","tVenda":"6,52%","pCompra":"5.269,99","pVenda":"5.236,19"},
{"Dia":"07/03/2016","tCompra":"6,65%","tVenda":"6,73%","pCompra":"5.184,24","pVenda":"5.151,27"},
{"Dia":"08/03/2016","tCompra":"6,78%","tVenda":"6,86%","pCompra":"5.133,12","pVenda":"5.100,66"},
{"Dia":"09/03/2016","tCompra":"6,55%","tVenda":"6,63%","pCompra":"5.230,48","pVenda":"5.197,12"},
{"Dia":"10/03/2016","tCompra":"6,50%","tVenda":"6,58%","pCompra":"5.253,78","pVenda":"5.220,22"}]
